…
    ## New names:
    ## * `` -> ...15
    ## * `` -> ...16
    ## * `` -> ...17

``` r
#view datasets for correctness 
trash_wheel
```

    ## # A tibble: 344 x 14
    ##    dumpster month  year date                weight_tons volume_cubic_ya…
    ##       <dbl> <chr> <dbl> <dttm>                    <dbl>            <dbl>
    ##  1        1 May    2014 2014-05-16 00:00:00        4.31               18
    ##  2        2 May    2014 2014-05-16 00:00:00        2.74               13
    ##  3        3 May    2014 2014-05-16 00:00:00        3.45               15
    ##  4        4 May    2014 2014-05-17 00:00:00        3.1                15
    ##  5        5 May    2014 2014-05-17 00:00:00        4.06               18
    ##  6        6 May    2014 2014-05-20 00:00:00        2.71               13
    ##  7        7 May    2014 2014-05-21 00:00:00        1.91                8
    ##  8        8 May    2014 2014-05-28 00:00:00        3.7                16
    ##  9        9 June   2014 2014-06-05 00:00:00        2.52               14
    ## 10       10 June   2014 2014-06-11 00:00:00        3.76               18
    ## # … with 334 more rows, and 8 more variables: plastic_bottles <dbl>,
    ## #   polystyrene <dbl>, cigarette_butts <dbl>, glass_bottles <dbl>,
    ## #   grocery_bags <dbl>, chip_bags <dbl>, sports_balls <int>,
    ## #   homes_powered <dbl>
…
``` r
precipitation_all = 
  full_join(precipitation_17, precipitation_18) %>% 
  mutate(month = month.name[month])
```

    ## Joining, by = c("year", "month", "total")

``` r
#view datasets for correctness 
precipitation_all
```

    ## # A tibble: 24 x 3
    ##     year month     total
    ##    <dbl> <chr>     <dbl>
    ##  1  2017 January    2.34
    ##  2  2017 February   1.46
    ##  3  2017 March      3.57
    ##  4  2017 April      3.99
    ##  5  2017 May        5.64
    ##  6  2017 June       1.4 
    ##  7  2017 July       7.09
    ##  8  2017 August     4.44
    ##  9  2017 September  1.95
    ## 10  2017 October    0   
    ## # … with 14 more rows
…
``` r
#view datasets for correctness 
pols
```

    ## # A tibble: 822 x 9
    ##     year month    gov_gop sen_gop rep_gop gov_dem sen_dem rep_dem president
    ##    <dbl> <chr>      <dbl>   <dbl>   <dbl>   <dbl>   <dbl>   <dbl> <chr>    
    ##  1  1947 January       23      51     253      23      45     198 dem      
    ##  2  1947 February      23      51     253      23      45     198 dem      
    ##  3  1947 March         23      51     253      23      45     198 dem      
    ##  4  1947 April         23      51     253      23      45     198 dem      
    ##  5  1947 May           23      51     253      23      45     198 dem      
    ##  6  1947 June          23      51     253      23      45     198 dem      
    ##  7  1947 July          23      51     253      23      45     198 dem      
    ##  8  1947 August        23      51     253      23      45     198 dem      
    ##  9  1947 Septemb…      23      51     253      23      45     198 dem      
    ## 10  1947 October       23      51     253      23      45     198 dem      
    ## # … with 812 more rows
